Chapter 1 An Introduction | An Introduction to R for Quantitative Methods
…
There are a large number of ways to access the rows and columns of a data frame, and one of them is to treat it similarly to a matrix.

County1 <- sctable[1, ]
Birth.Death <- sctable[ , 3:4]

This simplicity sometimes causes trouble though. While Birth.Death may look on the screen like it is a matrix, it is still a data frame and many functions which use matrix operations (like matrix multiplication) will give an error. The attributes function will show us the true status of our object (it returns NULL for a numeric vector and the dimensions if a matrix):

Birth.Death

## # A tibble: 46 × 2
##    Births Death
##     <dbl> <dbl>
##  1   12.5  10.3
##  2   12.1   9.8
##  3   14.8  12.1
##  4   13    10.7
##  5   11.5   9.9
##  6   14    10.9
##  7   15.8   7.8
##  8   14.4   6.6
##  9   11.5  11.1
## 10   14.5   8.5
## # … with 36 more rows
…
