Chapter 3 Manipulating Data | An Introduction to R for Quantitative Methods
…
|: or

The function order (and its relatives index and sort) are often useful as well:

sort(sctable$Income)

##  [1] 20898 24007 24214 26526 26598 26630 26907 27131 28591 28771 29483 29567
## [13] 29733 30376 30727 31087 31441 31577 32425 32635 32736 32867 33278 33787
## [25] 33933 34688 34702 35144 35146 35312 35774 36214 36470 36666 36807 37579
## [37] 37810 37889 38804 39908 39961 41149 43316 44539 44659 46992

sctable[order(sctable$Income), c(1, 2, 11)]

## # A tibble: 46 × 3
##    County       Region     Income
##    <chr>        <chr>       <dbl>
##  1 Allendale    LowCountry  20898
##  2 Bamberg      Midlands    24007
##  3 Williamsburg Peedee      24214
##  4 Marion       Peedee      26526
##  5 Marlboro     Peedee      26598
##  6 Dillon       Peedee      26630
##  7 Lee          Peedee      26907
##  8 Clarendon    Midlands    27131
##  9 Barnwell     Midlands    28591
## 10 Hampton      LowCountry  28771
## # … with 36 more rows
…
