Chapter 5 Statistical Analysis | An Introduction to R for Quantitative Methods
…
broom::glance(E1fit)

## # A tibble: 1 × 12
##   r.squ…¹ adj.r…² sigma stati…³ p.value    df logLik   AIC   BIC devia…⁴ df.re…⁵
##     <dbl>   <dbl> <dbl>   <dbl>   <dbl> <dbl>  <dbl> <dbl> <dbl>   <dbl>   <int>
## 1  0.0992  0.0134  11.4    1.16   0.341     6  -266.  548.  566.    8239      63
## # … with 1 more variable: nobs <int>, and abbreviated variable names
## #   ¹​r.squared, ²​adj.r.squared, ³​statistic, ⁴​deviance, ⁵​df.residual

broom::augment(E1fit)

## # A tibble: 70 × 8
##       E1 grp   .fitted  .resid  .hat .sigma  .cooksd .std.resid
##    <dbl> <fct>   <dbl>   <dbl> <dbl>  <dbl>    <dbl>      <dbl>
##  1    79 1NU      82.1  -3.10  0.100   11.5 0.00130     -0.286 
##  2    60 1NU      82.1 -22.1   0.100   11.1 0.0659      -2.04  
##  3    83 1NU      82.1   0.900 0.100   11.5 0.000109     0.0830
##  4    91 1NU      82.1   8.90  0.1     11.5 0.0107       0.820 
##  5    68 1NU      82.1 -14.1   0.1     11.4 0.0268      -1.30  
##  6    89 1NU      82.1   6.90  0.1     11.5 0.00642      0.636 
##  7    76 1NU      82.1  -6.10  0.1     11.5 0.00502     -0.562 
##  8    92 1NU      82.1   9.90  0.1     11.5 0.0132       0.913 
##  9    84 1NU      82.1   1.90  0.1     11.5 0.000487     0.175 
## 10    99 1NU      82.1  16.9   0.1     11.3 0.0385       1.56  
## # … with 60 more rows
…
