Chapter 3 Transforming Data | An Introduction to R for Quantitative Methods
…
Ungrouping

Grouped mutates (and filters)

Extra: Working with factor variables

3.1 An example

The following example ties several of the above ideas together. Imagine that we have a set of grades from a course that we would like to convert to letter grades using a particular weighting and letter-grade cut-offs.

url <- "https://raw.githubusercontent.com/haleyjeppson/R4QM/main/data/CourseData.txt"
students <- readr::read_table(url)[, -1]
students

## # A tibble: 70 × 6
##    College  Year  Hmwk    E1    E2    E3
##    <chr>   <dbl> <dbl> <dbl> <dbl> <dbl>
##  1 NU          1  83.8    79    89    59
##  2 NU          1  77.1    60    97    63
##  3 NU          1  94.5    83    88    69
##  4 NU          1  84.3    91    77    72
##  5 NU          1  73.4    68    79    76
##  6 NU          1  94.7    89    96    79
##  7 NU          1  77.7    76    43    84
##  8 NU          1  92.9    92    81    84
##  9 NU          1  95.9    84    85    84
## 10 NU          1  98.2    99    84    85
## # … with 60 more rows
…
